-------------------------------------------------------------------------------
Test set: unit.model.InventoryTest
-------------------------------------------------------------------------------
Tests run: 11, Failures: 0, Errors: 0, Skipped: 0, Time elapsed: 1.525 s - in unit.model.InventoryTest
